{
  "version": "1.0.0-*",
  "description": "CapitalAlliance.ApplicationProcessor Console Application",
  "authors": [ "vinita.s" ],
  "tags": [ "" ],
  "projectUrl": "",
  "licenseUrl": "",
  "frameworks": {
    "dnx451": {
    }
  },
  "dependencies": {
    "CapitalAlliance.ApplicationProcessor.Abstractions": "",
    "LendFoundry.Clients.DecisionEngine": "1.0.0-*",
    "LendFoundry.Configuration.Client": "1.0.7-*",
    "LendFoundry.EventHub.Abstractions": "1.0.1-9",
    "LendFoundry.EventHub.Client": "1.0.3-*",
    "LendFoundry.Foundation.Lookup.Abstractions": "1.0.0-*",
    "LendFoundry.Foundation.Lookup.Client": "1.0.0-11005",
    "LendFoundry.Notifications.Abstractions": "1.0.1-*",
    "LendFoundry.Notifications.Client": "1.0.1-*",
    "LendFoundry.OfferEngine.Abstractions": "1.0.0-*",
    "LendFoundry.OfferEngine.Client": "1.0.0-*",
    "LendFoundry.Security.Identity.Abstractions": "1.0.0-11040",
    "LendFoundry.Security.Identity.Client": "1.0.0-11040",
    "LendFoundry.Security.Tokens": "1.0.6-11044",
    "LendFoundry.Tenant.Abstractions": "1.0.0-*",
    "LendFoundry.Tenant.Client": "1.0.9-*",
    "LendFoundry.Security.Client": "1.0.0-*",
    "LendFoundry.Foundation.Services": "1.0.9-*",
    "Microsoft.Framework.DependencyInjection.Abstractions": "1.0.0-beta8"  
  }
}
