{
  "profiles": {
    "kestrel": {
      "commandName": "kestrel",
      "environmentVariables": {
        "APPLICATION-PROCESSOR_CONFIGURATION_PORT": "5008",
        "APPLICATION-PROCESSOR_TENANT_PORT": "5014",
        "LOG_FORMAT": "plain",
        "APPLICATION-PROCESSOR_CONFIGURATION_HOST": "192.168.1.67",
        "APPLICATION-PROCESSOR_EVENTHUB_PORT": "5004",
        "APPLICATION-PROCESSOR_EVENTHUB_HOST": "192.168.1.67",
        "APPLICATION-PROCESSOR_TENANT_HOST": "192.168.1.67",
        "APPLICATION-PROCESSOR_MONGO_CONNECTION": "mongodb://192.168.1.67:27017",
        "APPLICATION-PROCESSOR_MONGO_DATABASE": "APPLICATION-PROCESSOR",
        "APPLICATION-PROCESSOR_GEOPROFILE_PORT": "6006",
        "APPLICATION-PROCESSOR_GEOPROFILE_HOST": "192.168.1.67",
        "APPLICATION-PROCESSOR_CRIFCREDITREPORT_PORT": "5103",
        "APPLICATION-PROCESSOR_CRIFCREDITREPORT_HOST": "192.168.1.67",
        "APPLICATION-PROCESSOR_CRIFPANVERIFICATION_PORT": "5105",
        "APPLICATION-PROCESSOR_CRIFPANVERIFICATION_HOST": "192.168.1.67",
        "APPLICATION-PROCESSOR_APPLICATION_PORT": "6003",
        "APPLICATION-PROCESSOR_APPLICATION_HOST": "192.168.1.67",
        "APPLICATION-PROCESSOR_APPLICANT_PORT": "6004",
        "APPLICATION-PROCESSOR_APPLICANT_HOST": "192.168.1.67",
        "APPLICATION-PROCESSOR_DECISIONENGINE_PORT": "5042",
        "APPLICATION-PROCESSOR_DECISIONENGINE_HOST": "192.168.1.67",
        "APPLICATION-PROCESSOR_PERFIOS_PORT": "5101",
        "APPLICATION-PROCESSOR_PERFIOS_HOST": "192.168.1.67",
        "APPLICATION-PROCESSOR_LENDDO_PORT": "5106",
        "APPLICATION-PROCESSOR_LENDDO_HOST": "192.168.1.67",
        "APPLICATION-PROCESSOR_COMPANYDB_PORT": "6005",
        "APPLICATION-PROCESSOR_COMPANYDB_HOST": "192.168.1.67",
        "APPLICATION-PROCESSOR_SCORECARD_PORT": "7006",
        "APPLICATION-PROCESSOR_SCORECARD_HOST": "192.168.1.67",
        "APPLICATION-PROCESSOR_DATAATTRIBUTES_PORT": "7003",
        "APPLICATION-PROCESSOR_DATAATTRIBUTES_HOST": "192.168.1.67",
        "APPLICATION-PROCESSOR_LOOKUP_PORT": "5041",
        "APPLICATION-PROCESSOR_LOOKUP_HOST": "192.168.1.67",
        "APPLICATION-PROCESSOR_STATUSMANAGEMENT_PORT": "6002",
        "APPLICATION-PROCESSOR_STATUSMANAGEMENT_HOST": "192.168.1.67",
        "APPLICATION-PROCESSOR_APPLICATION-CONSENT_PORT": "5208",
        "APPLICATION-PROCESSOR_APPLICATION-CONSENT_HOST": "192.168.1.67",
        "APPLICATION-PROCESSOR_VIEWDNS_PORT": "5111",
        "APPLICATION-PROCESSOR_VIEWDNS_HOST": "192.168.1.67",
        "APPLICATION-PROCESSOR_ZUMIGO_PORT": "5110",
        "APPLICATION-PROCESSOR_ZUMIGO_HOST": "192.168.1.67",
        "APPLICATION-PROCESSOR_EMAILHUNTER_PORT": "5102",
        "APPLICATION-PROCESSOR_EMAILHUNTER_HOST": "192.168.1.59",
        "APPLICATION-PROCESSOR_VERIFICATIONENGINE_PORT": "5212",
        "APPLICATION-PROCESSOR_VERIFICATIONENGINE_HOST": "192.168.1.67",
        "APPLICATION-PROCESSOR_EMAILOTP_PORT": "5203",
        "APPLICATION-PROCESSOR_EMAILOTP_HOST": "192.168.1.67",
        "APPLICATION-PROCESSOR_APPLICATIONFILTERS_PORT": "6001",
        "APPLICATION-PROCESSOR_APPLICATIONFILTERS_HOST": "192.168.1.67",
        "APPLICATION-PROCESSOR_CIBIL_PORT": "5113",
        "APPLICATION-PROCESSOR_CIBIL_HOST": "192.168.1.67",
        "APPLICATION-PROCESSOR_BUSINESSAPPLICATION_PORT": "5002",
        "APPLICATION-PROCESSOR_BUSINESSAPPLICATION_HOST": "192.168.1.67",
        "APPLICATION-PROCESSOR_BUSINESSAPPLICANT_PORT": "5003",
        "APPLICATION-PROCESSOR_BUSINESSAPPLICANT_HOST": "192.168.1.67",
        "APPLICATION-PROCESSOR_DATAMERCH_PORT": "7009",
        "APPLICATION-PROCESSOR_DATAMERCH_HOST": "192.168.1.67",
        "APPLICATION-PROCESSOR_WHITEPAGES_PORT": "7008",
        "APPLICATION-PROCESSOR_WHITEPAGES_HOST": "192.168.1.67",
        "APPLICATION-PROCESSOR_YELP_PORT": "7010",
        "APPLICATION-PROCESSOR_YELP_HOST": "192.168.1.67",
        "APPLICATION-PROCESSOR_BBBSEARCH_PORT": "7007",
        "APPLICATION-PROCESSOR_BBBSEARCH_HOST": "192.168.1.67"
      }
    },
    "CapitalAlliance.OfferEngine.Api": {
      "commandName": "Project"
    }
  }
}